72 -32 -80 784
96 -40 -40 -72 712
-24 -16 -8 16 -40 848
992
-992
-24 -16 -40 -32 848
-16 -40 -32 -16 -32 -16 -48 -32 -24 -40 616
-32 -24 -40 -16 -32 -56 -64 -64 -16 -32 -24 -40 -264 184
-8 976
-24 -40 -16 -32 -40 8 -280 -40 -40 -40 -40 304
